<?xml version="1.0" encoding="utf-8"?>
<!-- Generator: Adobe Illustrator 19.1.0, SVG Export Plug-In . SVG Version: 6.00 Build 0)  -->
<svg version="1.1" id="Calque_1" xmlns="http://www.w3.org/2000/svg" xmlns:xlink="http://www.w3.org/1999/xlink" x="0px" y="0px"
	 viewBox="0 0 328 328" style="enable-background:new 0 0 328 328;" xml:space="preserve">
<style type="text/css">
	.st0{fill:#030405;}
	.st1{fill:#FFFFFF;}
</style>
<g>
	<path class="st0" d="M324.8,181c13.3,49.6-16.1,100.5-65.7,113.8l-112.1,30c-49.6,13.3-100.5-16.1-113.8-65.7L3.2,147
		C-10.1,97.5,19.3,46.5,68.9,33.2L181,3.2c49.6-13.3,100.5,16.1,113.8,65.7L324.8,181z"/>
	<g>
		<g>
			<g>
				<path class="st1" d="M76.1,218v-4.1l0.8-0.1c6-0.5,9.8-1.7,11-2.9l0,0c1.2-1,2.2-5,2.1-11.6l0,0v-40.7c0-3.7-0.3-6.2-0.7-7.4
					l0,0c-0.8-2-2.1-2.9-4.6-2.9l0,0c-0.6,0-1.1,0.1-1.7,0.2l0,0c-0.5,0.1-2.3,0.6-5.1,1.4l0,0l-1.1,0.3v-4.4l29.5-10.3l0,2.6
					l0,61.3c0,6.4,0.9,10.4,2.1,11.6l0,0c1.2,1.3,4.6,2.5,10.1,2.9l0,0l0.8,0.1v4.1H76.1L76.1,218z"/>
			</g>
		</g>
		<g>
			<path class="st1" d="M225.1,210.1c-8.2,0-14.8-2.6-20-7.9c-4.4-4.5-6.9-12.3-7.3-23.4H261l0-0.9c-0.1-7.8-1.3-14.3-3.6-19.5
				c-3.2-7.4-8-13.1-14.4-17c-6.4-3.9-14-5.9-22.6-5.9c-11.8,0-21.9,4-30,11.9c-8.1,7.9-12.2,18.3-12.2,31.1
				c0,11.9,4.1,21.8,12.4,29.4c8.2,7.6,18.4,11.5,30.5,11.5c0,0,0.1,0,0.1,0c13.1,0,24-4.5,32.6-13.3l-7-4.5
				C240.6,207.2,233.4,210.1,225.1,210.1z M204.6,149.5c4.4-5,9.7-7.4,16-7.4c5.6,0,10.4,2,14.6,6.1c4.1,4.1,6.2,9,6.2,14.8
				c0,3.2-0.6,5.2-1.7,6.3c-1.1,1.1-2.5,1.7-4.6,1.7h-37.4C198.1,161.4,200.4,154.2,204.6,149.5z"/>
		</g>
		<circle class="st1" cx="96.9" cy="108.1" r="9.9"/>
		<g>
			<path class="st1" d="M132.6,158c-0.4-0.4,0-0.9,0-0.9c6.5-7.2,17.3-19.2,26.2-29.4c7.3-8.7,11.9-9.6,27.8-11.2V111l-49.2,0.1
				l-0.1,5.5c4.5,0.5,7.5,1,9.8,1.9c2.3,0.7,3,1.9,3,3.1c0,2.4-1.6,5.6-5.4,10.8c-11.6,15.1-22.4,26.2-30.3,30.9
				c0,0-2.7,2.2,0.7,6.9c8.4,11.4,22.9,30.6,31.5,39.8c2.3,2.3,5.4,5.4,8.9,6.8c1.9,0.8,7.3,1.2,20.1,1.1l8.3,0l-15.4-16.3
				C157.1,190.2,139.4,169,132.6,158z"/>
		</g>
	</g>
	<g>
		<path class="st1" d="M247.2,247.2c0,1.4,0.3,1.9,0.8,1.9c0.4,0,0.8-0.2,0.9-0.4c0.1-0.1,0.2-0.2,0.3-0.1l0.3,0.2
			c0.1,0.1,0.1,0.2,0,0.5c-0.2,0.4-0.7,1.2-2,1.2c-0.9,0-1.6-0.7-1.8-1.7h0c-0.5,0.6-1.4,1.2-2.5,1.5c-0.5,0.2-0.9,0.2-1.5,0.2
			c-0.6,0-1.5-0.5-1.5-2.1c0-1.2,0.5-2.2,2.5-3c1.1-0.5,2.4-1.1,2.8-1.5v-1.6c0-0.4-0.1-1.1-0.4-1.4c-0.3-0.3-0.8-0.6-1.5-0.6
			c-0.5,0-1.3,0.2-1.6,0.5c-0.4,0.3-0.1,0.7-0.1,1.2c0,0.9-0.3,1.4-1.3,1.4c-0.4,0-0.6-0.2-0.6-0.8c0-0.8,0.7-1.8,1.7-2.4
			c1.1-0.6,1.9-0.9,3.1-0.9c1.2,0,1.7,0.4,2,0.7c0.5,0.5,0.6,1.1,0.6,1.8v3.9V247.2z M245.3,244.6c-0.9,0.7-3.4,1.2-3.4,3.3
			c0,0.9,0.6,1.4,1.3,1.4c0.7,0,2.1-0.9,2.1-1.6V244.6z"/>
		<path class="st1" d="M252.2,242.9c0-0.9-0.2-1.3-1.4-1.5c-0.2,0-0.2-0.1-0.2-0.2v-0.2c0-0.1,0-0.1,0.2-0.2
			c0.8-0.3,1.8-0.7,2.7-1.2c0.2-0.1,0.3-0.2,0.5-0.2c0.1,0,0.2,0.1,0.1,0.3c-0.1,0.4-0.1,2-0.1,4.1v2.7c0,1,0,1.9,0,2.2
			c0.1,0.5,0.1,0.7,0.4,0.7h1.2c0.2,0,0.3,0.1,0.3,0.2v0.4c0,0.2-0.1,0.3-0.2,0.3c-0.2,0-1.4-0.1-2.4-0.1c-1.5,0-2.4,0.1-2.7,0.1
			c-0.1,0-0.2-0.1-0.2-0.2v-0.5c0-0.2,0.1-0.2,0.3-0.2h1.2c0.3,0,0.4-0.1,0.4-0.5c0-0.8,0-1.5,0-2.3V242.9z M251.1,235.2
			c0-0.6,0.5-1.3,1.5-1.3c0.9,0,1.3,0.7,1.3,1.2c0,0.7-0.5,1.4-1.5,1.4C251.9,236.5,251.1,236,251.1,235.2z"/>
		<path class="st1" d="M259,235.7c0-1-0.1-1.5-1.3-1.8c-0.3-0.1-0.4-0.1-0.4-0.2v-0.2c0-0.1,0.1-0.2,0.3-0.3l2.6-1.1
			c0.2-0.1,0.4-0.2,0.6-0.2c0.2,0,0.2,0.1,0.2,0.4c-0.1,1.2-0.1,4.9-0.1,7.9v4c0.3,0,1-0.1,1.2-0.3c0.5-0.3,2.5-2.5,2.7-2.8
			c0.2-0.3,0.2-0.5,0-0.6c-0.2-0.2-0.5-0.2-0.7-0.2c-0.2,0-0.2-0.1-0.2-0.2v-0.5c0-0.1,0-0.2,0.2-0.2c0.2,0,1.1,0.1,2.3,0.1
			c1.2,0,1.9-0.1,2-0.1c0.1,0,0.2,0.1,0.2,0.3v0.5c0,0.2,0,0.2-0.2,0.2h-0.2c-0.5,0-1.2,0.3-1.7,0.6c-0.4,0.2-2.5,2.1-3.3,3
			c0.5,0.5,4.7,4.7,5.2,4.9c0.5,0.2,1,0.4,1.3,0.4c0.2,0,0.2,0,0.2,0.2v0.5c0,0.2-0.1,0.2-0.2,0.2c-0.2,0-0.9-0.1-2.1-0.1
			c-1.5,0-2.5,0.1-2.7,0.1c-0.1,0-0.2-0.1-0.2-0.3v-0.4c0-0.1,0.1-0.2,0.3-0.2h0.2c0.2,0,0.4-0.2,0.3-0.4c-0.1-0.2-2.9-3.3-3.4-3.6
			c-0.3-0.2-0.8-0.3-1.1-0.3v1.1c0,0.9,0,1.7,0,2.6c0,0.4,0.2,0.5,0.5,0.5h0.7c0.2,0,0.2,0,0.2,0.2v0.4c0,0.2,0,0.3-0.2,0.3
			s-1-0.1-2.2-0.1c-1.4,0-2.2,0.1-2.4,0.1c-0.1,0-0.1-0.1-0.1-0.3v-0.4c0-0.2,0.1-0.2,0.3-0.2h0.9c0.3,0,0.5-0.3,0.5-0.6
			c0-1.1,0.1-2.5,0.1-4.7V235.7z"/>
		<path class="st1" d="M272.9,242.9c0-0.9-0.2-1.3-1.4-1.5c-0.2,0-0.2-0.1-0.2-0.2v-0.2c0-0.1,0.1-0.1,0.2-0.2
			c0.8-0.3,1.8-0.7,2.7-1.2c0.2-0.1,0.3-0.2,0.5-0.2c0.1,0,0.2,0.1,0.1,0.3c-0.1,0.4-0.1,2-0.1,4.1v2.7c0,1,0,1.9,0,2.2
			c0.1,0.5,0.1,0.7,0.4,0.7h1.2c0.2,0,0.3,0.1,0.3,0.2v0.4c0,0.2,0,0.3-0.2,0.3c-0.2,0-1.4-0.1-2.4-0.1c-1.5,0-2.4,0.1-2.7,0.1
			c-0.1,0-0.2-0.1-0.2-0.2v-0.5c0-0.2,0.1-0.2,0.3-0.2h1.2c0.3,0,0.4-0.1,0.4-0.5c0-0.8,0-1.5,0-2.3V242.9z M271.8,235.2
			c0-0.6,0.5-1.3,1.5-1.3c0.9,0,1.3,0.7,1.3,1.2c0,0.7-0.5,1.4-1.5,1.4C272.6,236.5,271.8,236,271.8,235.2z"/>
	</g>
	<g>
		<polygon class="st1" points="230.8,255 230.8,230.8 237.6,230.8 237.6,232.3 232.3,232.3 232.3,253.5 237.6,253.5 237.6,253.5 
			237.6,255 230.8,255 		"/>
		<polygon class="st1" points="278.7,255 278.7,253.5 284.1,253.5 284.1,232.3 278.7,232.3 278.7,230.8 285.6,230.8 285.6,255 
			278.7,255 		"/>
	</g>
</g>
</svg>
